module gitlab.com/gitlab-org/gitaly/v16

go 1.23.0

toolchain go1.23.6

// It is a temporary solution, please see https://gitlab.com/gitlab-org/gitaly/-/issues/4423 for details.
replace github.com/go-enry/go-license-detector/v4 => github.com/gl-gitaly/go-license-detector/v4 v4.0.0-20230524080836-4cc9a3796917

require (
	cloud.google.com/go/storage v1.44.0
	github.com/Azure/azure-sdk-for-go/sdk/storage/azblob v1.6.0
	github.com/ProtonMail/go-crypto v1.0.0
	github.com/aws/aws-sdk-go-v2/service/s3 v1.63.1
	github.com/cloudflare/tableflip v1.2.3
	github.com/containerd/cgroups/v3 v3.0.5
	github.com/dgraph-io/badger/v4 v4.6.0
	github.com/getsentry/sentry-go v0.31.1
	github.com/git-lfs/git-lfs/v3 v3.6.1
	github.com/go-enry/go-enry/v2 v2.9.2
	github.com/go-enry/go-license-detector/v4 v4.3.0
	github.com/golang-jwt/jwt/v5 v5.2.1
	github.com/google/go-cmp v0.7.0
	github.com/google/uuid v1.6.0
	github.com/grpc-ecosystem/go-grpc-middleware v1.4.0
	github.com/grpc-ecosystem/go-grpc-middleware/v2 v2.3.1
	github.com/grpc-ecosystem/go-grpc-prometheus v1.2.0
	github.com/hashicorp/golang-lru/v2 v2.0.7
	github.com/hashicorp/yamux v0.1.2-0.20220728231024-8f49b6f63f18
	github.com/jackc/pgx/v5 v5.7.0
	github.com/miekg/dns v1.1.63
	github.com/olekukonko/tablewriter v0.0.5
	github.com/opencontainers/runtime-spec v1.2.1
	github.com/opentracing/opentracing-go v1.2.0
	github.com/pelletier/go-toml/v2 v2.2.3
	github.com/prometheus/client_golang v1.21.1
	github.com/prometheus/client_model v0.6.1
	github.com/prometheus/common v0.62.0
	github.com/rubenv/sql-migrate v1.7.1
	github.com/sirupsen/logrus v1.9.3
	github.com/stretchr/testify v1.10.0
	github.com/uber/jaeger-client-go v2.30.0+incompatible
	github.com/urfave/cli/v2 v2.27.5
	gitlab.com/gitlab-org/labkit v1.21.2
	go.etcd.io/etcd/raft/v3 v3.5.18
	go.uber.org/automaxprocs v1.6.0
	go.uber.org/goleak v1.3.0
	gocloud.dev v0.40.1-0.20241107185025-56954848c3aa
	golang.org/x/crypto v0.35.0
	golang.org/x/exp v0.0.0-20241108190413-2d47ceb2692f
	golang.org/x/sync v0.11.0
	golang.org/x/sys v0.31.0
	golang.org/x/text v0.22.0
	golang.org/x/time v0.11.0
	google.golang.org/genproto/googleapis/rpc v0.0.0-20240930140551-af27646dc61f
	// Please upgrade grpc-go with caution. Newer grpc-go versions contain some known issues:
	// - https://gitlab.com/gitlab-com/request-for-help/-/issues/2127
	// - https://gitlab.com/gitlab-org/gitaly/-/issues/6385
	google.golang.org/grpc v1.67.1
	google.golang.org/protobuf v1.36.5
)

require (
	cel.dev/expr v0.19.1 // indirect
	cloud.google.com/go v0.115.1 // indirect
	cloud.google.com/go/auth v0.9.3 // indirect
	cloud.google.com/go/auth/oauth2adapt v0.2.4 // indirect
	cloud.google.com/go/compute/metadata v0.5.1 // indirect
	cloud.google.com/go/iam v1.2.1 // indirect
	cloud.google.com/go/monitoring v1.21.0 // indirect
	cloud.google.com/go/profiler v0.1.0 // indirect
	cloud.google.com/go/trace v1.11.0 // indirect
	contrib.go.opencensus.io/exporter/stackdriver v0.13.14 // indirect
	dario.cat/mergo v1.0.0 // indirect
	github.com/Azure/azure-sdk-for-go/sdk/azcore v1.17.0 // indirect
	github.com/Azure/azure-sdk-for-go/sdk/azidentity v1.8.0 // indirect
	github.com/Azure/azure-sdk-for-go/sdk/internal v1.10.0 // indirect
	github.com/Azure/go-autorest v14.2.0+incompatible // indirect
	github.com/Azure/go-autorest/autorest/to v0.4.0 // indirect
	github.com/AzureAD/microsoft-authentication-library-for-go v1.3.2 // indirect
	github.com/DataDog/datadog-go v4.4.0+incompatible // indirect
	github.com/DataDog/sketches-go v1.0.0 // indirect
	github.com/GoogleCloudPlatform/opentelemetry-operations-go/detectors/gcp v1.24.1 // indirect
	github.com/GoogleCloudPlatform/opentelemetry-operations-go/exporter/metric v0.48.1 // indirect
	github.com/GoogleCloudPlatform/opentelemetry-operations-go/internal/resourcemapping v0.48.1 // indirect
	github.com/HdrHistogram/hdrhistogram-go v1.1.2 // indirect
	github.com/Microsoft/go-winio v0.6.1 // indirect
	github.com/alexbrainman/sspi v0.0.0-20210105120005-909beea2cc74 // indirect
	github.com/avast/retry-go v3.0.0+incompatible // indirect
	github.com/aws/aws-sdk-go v1.55.5 // indirect
	github.com/aws/aws-sdk-go-v2 v1.31.0 // indirect
	github.com/aws/aws-sdk-go-v2/aws/protocol/eventstream v1.6.5 // indirect
	github.com/aws/aws-sdk-go-v2/config v1.27.27 // indirect
	github.com/aws/aws-sdk-go-v2/credentials v1.17.27 // indirect
	github.com/aws/aws-sdk-go-v2/feature/ec2/imds v1.16.11 // indirect
	github.com/aws/aws-sdk-go-v2/feature/s3/manager v1.17.10 // indirect
	github.com/aws/aws-sdk-go-v2/internal/configsources v1.3.18 // indirect
	github.com/aws/aws-sdk-go-v2/internal/endpoints/v2 v2.6.18 // indirect
	github.com/aws/aws-sdk-go-v2/internal/ini v1.8.0 // indirect
	github.com/aws/aws-sdk-go-v2/internal/v4a v1.3.18 // indirect
	github.com/aws/aws-sdk-go-v2/service/internal/accept-encoding v1.11.5 // indirect
	github.com/aws/aws-sdk-go-v2/service/internal/checksum v1.3.20 // indirect
	github.com/aws/aws-sdk-go-v2/service/internal/presigned-url v1.11.20 // indirect
	github.com/aws/aws-sdk-go-v2/service/internal/s3shared v1.17.18 // indirect
	github.com/aws/aws-sdk-go-v2/service/sso v1.22.4 // indirect
	github.com/aws/aws-sdk-go-v2/service/ssooidc v1.26.4 // indirect
	github.com/aws/aws-sdk-go-v2/service/sts v1.30.3 // indirect
	github.com/aws/smithy-go v1.21.0 // indirect
	github.com/beorn7/perks v1.0.1 // indirect
	github.com/census-instrumentation/opencensus-proto v0.4.1 // indirect
	github.com/cespare/xxhash/v2 v2.3.0 // indirect
	github.com/cilium/ebpf v0.16.0 // indirect
	github.com/cloudflare/circl v1.3.7 // indirect
	github.com/cncf/xds/go v0.0.0-20240905190251-b4127c9b8d78 // indirect
	github.com/containerd/log v0.1.0 // indirect
	github.com/coreos/go-systemd/v22 v22.5.0 // indirect
	github.com/cpuguy83/go-md2man/v2 v2.0.5 // indirect
	github.com/cyphar/filepath-securejoin v0.2.4 // indirect
	github.com/davecgh/go-spew v1.1.2-0.20180830191138-d8f796af33cc // indirect
	github.com/dgraph-io/ristretto/v2 v2.1.0 // indirect
	github.com/dgryski/go-minhash v0.0.0-20190315135803-ad340ca03076 // indirect
	github.com/docker/go-units v0.5.0 // indirect
	github.com/dpotapov/go-spnego v0.0.0-20220426193508-b7f82e4507db // indirect
	github.com/dustin/go-humanize v1.0.1 // indirect
	github.com/ekzhu/minhash-lsh v0.0.0-20190924033628-faac2c6342f8 // indirect
	github.com/emirpasic/gods v1.18.1 // indirect
	github.com/envoyproxy/go-control-plane v0.13.0 // indirect
	github.com/envoyproxy/protoc-gen-validate v1.1.0 // indirect
	github.com/felixge/httpsnoop v1.0.4 // indirect
	github.com/git-lfs/gitobj/v2 v2.1.1 // indirect
	github.com/git-lfs/go-netrc v0.0.0-20210914205454-f0c862dd687a // indirect
	github.com/git-lfs/pktline v0.0.0-20210330133718-06e9096e2825 // indirect
	github.com/git-lfs/wildmatch/v2 v2.0.1 // indirect
	github.com/go-enry/go-oniguruma v1.2.1 // indirect
	github.com/go-git/gcfg v1.5.1-0.20230307220236-3a3c6141e376 // indirect
	github.com/go-git/go-billy/v5 v5.5.0 // indirect
	github.com/go-git/go-git/v5 v5.11.0 // indirect
	github.com/go-gorp/gorp/v3 v3.1.0 // indirect
	github.com/go-logr/logr v1.4.2 // indirect
	github.com/go-logr/stdr v1.2.2 // indirect
	github.com/go-ole/go-ole v1.2.6 // indirect
	github.com/godbus/dbus/v5 v5.1.0 // indirect
	github.com/gogo/protobuf v1.3.2 // indirect
	github.com/golang/groupcache v0.0.0-20210331224755-41bb18bfe9da // indirect
	github.com/golang/protobuf v1.5.4 // indirect
	github.com/google/flatbuffers v25.2.10+incompatible // indirect
	github.com/google/pprof v0.0.0-20240711041743-f6c9dda6c6da // indirect
	github.com/google/s2a-go v0.1.8 // indirect
	github.com/google/wire v0.6.0 // indirect
	github.com/googleapis/enterprise-certificate-proxy v0.3.4 // indirect
	github.com/googleapis/gax-go/v2 v2.13.0 // indirect
	github.com/hashicorp/go-uuid v1.0.3 // indirect
	github.com/hhatto/gorst v0.0.0-20181029133204-ca9f730cac5b // indirect
	github.com/jackc/pgpassfile v1.0.0 // indirect
	github.com/jackc/pgservicefile v0.0.0-20240606120523-5a60cdf6a761 // indirect
	github.com/jackc/puddle/v2 v2.2.1 // indirect
	github.com/jbenet/go-context v0.0.0-20150711004518-d14ea06fba99 // indirect
	github.com/jcmturner/aescts/v2 v2.0.0 // indirect
	github.com/jcmturner/dnsutils/v2 v2.0.0 // indirect
	github.com/jcmturner/gofork v1.0.0 // indirect
	github.com/jcmturner/goidentity/v6 v6.0.1 // indirect
	github.com/jcmturner/gokrb5/v8 v8.4.2 // indirect
	github.com/jcmturner/rpc/v2 v2.0.3 // indirect
	github.com/jdkato/prose v1.2.1 // indirect
	github.com/jmespath/go-jmespath v0.4.0 // indirect
	github.com/jmhodges/clock v1.2.0 // indirect
	github.com/kevinburke/ssh_config v1.2.0 // indirect
	github.com/klauspost/compress v1.18.0 // indirect
	github.com/kylelemons/godebug v1.1.0 // indirect
	github.com/leonelquinteros/gotext v1.5.0 // indirect
	github.com/lightstep/lightstep-tracer-common/golang/gogo v0.0.0-20210210170715-a8dfcb80d3a7 // indirect
	github.com/lightstep/lightstep-tracer-go v0.25.0 // indirect
	github.com/lufia/plan9stats v0.0.0-20211012122336-39d0f177ccd0 // indirect
	github.com/mattn/go-isatty v0.0.20 // indirect
	github.com/mattn/go-runewidth v0.0.15 // indirect
	github.com/moby/sys/userns v0.1.0 // indirect
	github.com/montanaflynn/stats v0.7.0 // indirect
	github.com/munnerz/goautoneg v0.0.0-20191010083416-a7dc8b61c822 // indirect
	github.com/oklog/ulid/v2 v2.0.2 // indirect
	github.com/olekukonko/ts v0.0.0-20171002115256-78ecb04241c0 // indirect
	github.com/philhofer/fwd v1.1.1 // indirect
	github.com/pjbgf/sha1cd v0.3.0 // indirect
	github.com/pkg/browser v0.0.0-20240102092130-5ac0b6a4141c // indirect
	github.com/pkg/errors v0.9.1 // indirect
	github.com/planetscale/vtprotobuf v0.6.1-0.20240319094008-0393e58bdf10 // indirect
	github.com/pmezard/go-difflib v1.0.1-0.20181226105442-5d4384ee4fb2 // indirect
	github.com/power-devops/perfstat v0.0.0-20210106213030-5aafc221ea8c // indirect
	github.com/prometheus/procfs v0.15.1 // indirect
	github.com/prometheus/prometheus v0.54.0 // indirect
	github.com/rivo/uniseg v0.2.0 // indirect
	github.com/rubyist/tracerx v0.0.0-20170927163412-787959303086 // indirect
	github.com/russross/blackfriday/v2 v2.1.0 // indirect
	github.com/sebest/xff v0.0.0-20210106013422-671bd2870b3a // indirect
	github.com/sergi/go-diff v1.2.0 // indirect
	github.com/shirou/gopsutil/v3 v3.21.12 // indirect
	github.com/shogo82148/go-shuffle v1.0.1 // indirect
	github.com/skeema/knownhosts v1.2.1 // indirect
	github.com/ssgelm/cookiejarparser v1.0.1 // indirect
	github.com/tinylib/msgp v1.1.2 // indirect
	github.com/tklauser/go-sysconf v0.3.9 // indirect
	github.com/tklauser/numcpus v0.3.0 // indirect
	github.com/uber/jaeger-lib v2.4.1+incompatible // indirect
	github.com/xanzy/ssh-agent v0.3.3 // indirect
	github.com/xrash/smetrics v0.0.0-20240521201337-686a1a2994c1 // indirect
	github.com/yusufpapurcu/wmi v1.2.2 // indirect
	gitlab.com/gitlab-org/go/reopen v1.0.0 // indirect
	go.opencensus.io v0.24.0 // indirect
	go.opentelemetry.io/auto/sdk v1.1.0 // indirect
	go.opentelemetry.io/contrib/detectors/gcp v1.29.0 // indirect
	go.opentelemetry.io/contrib/instrumentation/google.golang.org/grpc/otelgrpc v0.54.0 // indirect
	go.opentelemetry.io/contrib/instrumentation/net/http/otelhttp v0.54.0 // indirect
	go.opentelemetry.io/otel v1.34.0 // indirect
	go.opentelemetry.io/otel/metric v1.34.0 // indirect
	go.opentelemetry.io/otel/sdk v1.34.0 // indirect
	go.opentelemetry.io/otel/sdk/metric v1.29.0 // indirect
	go.opentelemetry.io/otel/trace v1.34.0 // indirect
	go.uber.org/atomic v1.11.0 // indirect
	golang.org/x/mod v0.22.0 // indirect
	golang.org/x/net v0.35.0 // indirect
	golang.org/x/oauth2 v0.24.0 // indirect
	golang.org/x/tools v0.27.0 // indirect
	golang.org/x/xerrors v0.0.0-20240716161551-93cc26a95ae9 // indirect
	gonum.org/v1/gonum v0.11.0 // indirect
	google.golang.org/api v0.197.0 // indirect
	google.golang.org/genproto v0.0.0-20240903143218-8af14fe29dc1 // indirect
	google.golang.org/genproto/googleapis/api v0.0.0-20240903143218-8af14fe29dc1 // indirect
	google.golang.org/grpc/stats/opentelemetry v0.0.0-20240907200651-3ffb98b2c93a // indirect
	gopkg.in/DataDog/dd-trace-go.v1 v1.32.0 // indirect
	gopkg.in/neurosnap/sentences.v1 v1.0.7 // indirect
	gopkg.in/warnings.v0 v0.1.2 // indirect
	gopkg.in/yaml.v3 v3.0.1 // indirect
)

exclude (
	// CVE-2020-28483
	github.com/gin-gonic/gin v1.4.0
	github.com/gin-gonic/gin v1.6.3
)
